<?xml version="1.0" encoding="UTF-8"?>
<!DOCTYPE svg PUBLIC "-//W3C//DTD SVG 1.1//EN" "http://www.w3.org/Graphics/SVG/1.1/DTD/svg11.dtd">
<!-- Creator: CorelDRAW 2019 (64-Bit) -->
<svg xmlns="http://www.w3.org/2000/svg" xml:space="preserve" width="200mm" height="100mm" version="1.1" style="shape-rendering:geometricPrecision; text-rendering:geometricPrecision; image-rendering:optimizeQuality; fill-rule:evenodd; clip-rule:evenodd"
viewBox="0 0 2000 10000"
 xmlns:xlink="http://www.w3.org/1999/xlink">
 <defs>
  <font id="FontID0" horiz-adv-x="300" font-variant="normal" style="fill-rule:nonzero" font-style="normal,italic" font-weight="300">
	<font-face 
		font-family="Arial">
		<font-face-src>
			<font-face-name name="Arial Negrita Cursiva"/>
		</font-face-src>
	</font-face>
   <missing-glyph><path d="M0 0z"/></missing-glyph>

  </font>
  <style type="text/css">
   <![CDATA[
    @font-face { font-family:"Arial";font-variant:normal;font-style:normal,italic;font-weight:bold;src:url("#FontID0") format(svg)}
    .str1 {stroke:#373435;stroke-width:7.62;stroke-miterlimit:22.9256}
    .str0 {stroke:#059351;stroke-width:7.62;stroke-miterlimit:22.9256}
    .fil3 {fill:none;fill-rule:nonzero}
    .fil2 {fill:#373435}
    .fil1 {fill:#059351}
    .fil4 {fill:#373435;fill-rule:nonzero}
    .fil0 {fill:#059351;fill-rule:nonzero}
    .fnt0 {font-style:italic;font-weight:bold;font-size:1727.93px;font-family:'Arial'}
   ]]>
  </style>
 </defs>
 <g id="Capa_x0020_1">
  <metadata id="CorelCorpID_0Corel-Layer"/>
  <g id="_2391902423840">
   <g>
    <g>
     <path class="fil0" d="M6176.48 3524.84c-85.03,624.93 -236.5,1114.33 -389.2,1257.32 -46.92,43.96 -55.07,45.21 -105.92,16.14 -121.15,-69.23 -269.58,-470.58 -385.57,-1042.55 -32.64,-161 -67.85,-289.97 -78.36,-287.05 -10.3,2.86 -45.34,41.31 -76.26,83.68l-57.2 78.38 60.35 260.57c132.96,574.09 309.21,1006.63 469.25,1151.69 66.1,59.89 99.57,74.87 167.36,74.87 176.08,0 379.37,-277.52 535.33,-730.85 75.79,-220.32 150.1,-520.59 170.91,-690.61 11.61,-94.99 8.39,-101.68 -126.85,-264.8 -75.52,-91.09 -140.69,-169.28 -143,-171.59 -2.33,-2.33 -20.65,116.51 -40.84,264.8z"/>
     <path class="fil0" d="M6759.56 4213.32c-412.1,478.77 -638.58,846.31 -656.59,1065.57 -16.82,204.77 84.7,283.86 364.33,283.86 284.71,0 756.27,-132.02 1114.29,-311.93l201.25 -101.15 56.13 -217.14c30.68,-118.64 51.82,-217.14 46.61,-217.14 -5.25,0 -111.21,56.73 -236.2,126.47 -446.99,249.4 -920.33,424.32 -1148.19,424.32 -129.22,0 -169.47,-23.64 -169.47,-99.57 0,-144.18 315.07,-588.92 705.35,-995.66l148.37 -154.64 -256.33 0 -169.55 197.01z"/>
     <path class="fil0" d="M5670.77 4155c-61.43,33.39 -122.87,128.23 -122.87,189.66 0,65.68 64.55,173.59 118.64,198.31 69.9,31.99 188.37,30.11 216.18,-3.41 11.58,-13.98 39.74,-82.62 62.56,-152.52 46.98,-144.06 35.59,-181.34 -71.14,-232.29 -82.62,-39.44 -130.45,-39.38 -203.37,0.25z"/>
     <path class="fil0" d="M4025.81 4468.6l-176.88 90.03 156.76 60.92c483,187.71 892.77,408.79 1086.75,586.38 186.42,170.64 192.99,237.64 29.66,302.83 -139.58,55.71 -610.1,84.4 -1004.13,61.22 -186.42,-10.97 -340.37,-19.45 -342.13,-18.88 -1.75,0.6 32.61,43.43 77.33,96.4l80.49 95.32 472.41 -1.48c639.77,-2.02 932.95,-58.91 1083.72,-210.36 169.69,-170.45 -30.86,-472.66 -532.93,-803.13 -247.85,-163.16 -623.49,-350.54 -701.19,-349.8 -29.18,0.28 -132.41,40.95 -229.86,90.55z"/>
     <path class="fil0" d="M6649.48 4805.61c-29.65,14.73 -70.21,61.25 -92.15,105.73 -32.39,65.67 -34.95,91.92 -14.83,151.47 13.63,40.25 43.07,88.84 66.73,110.16 41.12,36.99 46.61,36.9 184.3,-2.78 169.48,-48.85 207.93,-100.26 172.19,-230.25 -36.12,-131.34 -190.32,-196.84 -316.24,-134.33z"/>
     <path class="fil0" d="M4664.52 5070.99c-131.72,106.98 -112.27,299.54 38.13,377.31 138,71.33 315.65,-35.95 315.65,-190.6 0,-61.01 -14.83,-79.8 -116.52,-147.59 -129.22,-86.13 -170.89,-93.02 -237.26,-39.12z"/>
     <path class="fil0" d="M5367.84 5713.57c-223.41,30.8 -605.87,203.13 -923.63,416.22 -345.31,231.57 -358.02,250.32 -358.02,528.19l0 180.07 110.16 -99.04c294.46,-264.72 757.04,-571.68 1016.84,-674.78 230.91,-91.63 313.53,-71.92 313.53,74.74 0,169.74 -254.66,688.48 -584.46,1190.55l-32 48.72 121.81 -24.36c118.08,-23.6 124.43,-28.6 206.88,-162.06 143.95,-233.03 363.78,-679.25 424.76,-862.2 156.77,-470.29 63.01,-665.52 -295.87,-616.05z"/>
     <path class="fil0" d="M6013.95 5726.49c-114.41,59.78 -142.67,158.27 -97.7,340.45 64.42,260.82 337.28,669.42 673.37,1008.37 163.85,165.23 191.58,185.1 244.16,174.77 32.71,-6.42 133.46,-17.84 224.56,-25.42l165.23 -13.77 -122.87 -108.15c-387.66,-341.23 -713.92,-712.42 -832.22,-946.83 -115.53,-228.89 -82.93,-286.04 154.33,-270.54 178.05,11.67 521.14,121.59 932.11,298.67 148.29,63.9 268.57,105 267.98,91.56 -0.57,-13.28 -18.39,-66.72 -39.19,-117.57 -37.82,-92.45 -40.25,-94.04 -300.82,-196.91 -423.68,-167.22 -737.95,-251.39 -982.95,-263.16 -177.94,-8.59 -223.7,-4.01 -285.99,28.53z"/>
     <path class="fil0" d="M6414.34 6069.06c-80.88,80.9 -77.49,131.34 18.07,269.04 67.62,97.44 89.12,114.39 145.05,114.39 139.81,0 252.07,-169.01 198.41,-298.7 -64,-154.64 -248.39,-197.86 -361.53,-84.73z"/>
     <path class="fil0" d="M5056.43 6180.26c-76.26,41.43 -127.38,84.41 -134.76,113.35 -18.13,71.05 43.66,195.13 115.69,232.26 84.74,43.71 147.15,41.42 228.79,-8.36 129.23,-78.79 131.54,-279.89 4.24,-369.14 -65.82,-46.16 -72.03,-45.22 -213.96,31.89z"/>
    </g>
    <polygon class="fil1 str0" points="8563.05,5839.72 8627.67,6016.67 8837.99,6016.31 8667.58,6125.32 8732.97,6302.04 8563.05,6192.46 8393.12,6302.04 8458.52,6125.32 8288.11,6016.31 8498.43,6016.67 "/>
    <polygon class="fil1 str0" points="8684.36,5068.87 8748.98,5245.82 8959.3,5245.46 8788.89,5354.47 8854.28,5531.19 8684.36,5421.61 8514.43,5531.19 8579.83,5354.47 8409.41,5245.46 8619.74,5245.82 "/>
    <polygon class="fil1 str0" points="8496.77,4154.18 8561.39,4331.13 8771.71,4330.76 8601.3,4439.77 8666.69,4616.49 8496.77,4506.91 8326.84,4616.49 8392.24,4439.77 8221.82,4330.76 8432.15,4331.13 "/>
    <polygon class="fil1 str0" points="8060.48,3512.69 8125.1,3689.63 8335.42,3689.27 8165.01,3798.28 8230.41,3975 8060.48,3865.42 7890.56,3975 7955.95,3798.28 7785.54,3689.27 7995.86,3689.63 "/>
    <polygon class="fil1 str0" points="7377.2,2960.34 7441.83,3137.29 7652.15,3136.93 7481.73,3245.94 7547.13,3422.66 7377.2,3313.08 7207.28,3422.66 7272.68,3245.94 7102.26,3136.93 7312.58,3137.29 "/>
    <polygon class="fil1 str0" points="6626.84,2647.93 6691.47,2824.87 6901.79,2824.51 6731.37,2933.52 6796.77,3110.24 6626.84,3000.66 6456.92,3110.24 6522.32,2933.52 6351.9,2824.51 6562.22,2824.87 "/>
    <polygon class="fil1 str0" points="5684.13,2576.57 5748.76,2753.52 5959.08,2753.16 5788.66,2862.17 5854.06,3038.89 5684.13,2929.31 5514.21,3038.89 5579.61,2862.17 5409.19,2753.16 5619.51,2753.52 "/>
    <polygon class="fil1 str0" points="4880.09,2704.89 4944.71,2881.84 5155.04,2881.48 4984.62,2990.49 5050.02,3167.21 4880.09,3057.63 4710.17,3167.21 4775.56,2990.49 4605.15,2881.48 4815.47,2881.84 "/>
    <polygon class="fil1 str0" points="4124.2,3033.97 4188.82,3210.92 4399.14,3210.55 4228.73,3319.56 4294.12,3496.28 4124.2,3386.7 3954.27,3496.28 4019.67,3319.56 3849.25,3210.55 4059.58,3210.92 "/>
    <polygon class="fil1 str0" points="3541.95,3558.32 3606.57,3735.27 3816.89,3734.91 3646.48,3843.92 3711.87,4020.64 3541.95,3911.06 3372.02,4020.64 3437.42,3843.92 3267,3734.91 3477.33,3735.27 "/>
    <polygon class="fil1 str0" points="3151.53,4274.61 3216.15,4451.56 3426.47,4451.19 3256.06,4560.2 3321.45,4736.92 3151.53,4627.34 2981.6,4736.92 3047,4560.2 2876.58,4451.19 3086.91,4451.56 "/>
    <polygon class="fil1 str0" points="2958.74,5065.02 3023.36,5241.97 3233.68,5241.6 3063.27,5350.61 3128.66,5527.33 2958.74,5417.75 2788.81,5527.33 2854.21,5350.61 2683.79,5241.6 2894.12,5241.97 "/>
    <polygon class="fil1 str0" points="3081.11,5812.17 3145.73,5989.12 3356.05,5988.75 3185.64,6097.76 3251.03,6274.48 3081.11,6164.9 2911.18,6274.48 2976.58,6097.76 2806.16,5988.75 3016.49,5989.12 "/>
    <polygon class="fil1 str0" points="3510.64,6547.4 3575.26,6724.34 3785.59,6723.98 3615.17,6832.99 3680.57,7009.71 3510.64,6900.13 3340.72,7009.71 3406.11,6832.99 3235.7,6723.98 3446.02,6724.34 "/>
   </g>
   
   <g>
   </g>
  </g>
 </g>
</svg>
