<?xml version="1.0" encoding="UTF-8"?>
<!DOCTYPE svg PUBLIC "-//W3C//DTD SVG 1.1//EN" "http://www.w3.org/Graphics/SVG/1.1/DTD/svg11.dtd">
<!-- Creator: CorelDRAW X8 -->
<svg xmlns="http://www.w3.org/2000/svg" xml:space="preserve" width="50mm" height="48.35mm" version="1.1" style="shape-rendering:geometricPrecision; text-rendering:geometricPrecision; image-rendering:optimizeQuality; fill-rule:evenodd; clip-rule:evenodd"
viewBox="0 0 5000 4835"
 xmlns:xlink="http://www.w3.org/1999/xlink">
 <defs>
  <style type="text/css">
   <![CDATA[
    .fil1 {fill:#FEFEFE}
    .fil0 {fill:#373435}
   ]]>
  </style>
 </defs>
 <g id="Capa_x0020_1">
  <metadata id="CorelCorpID_0Corel-Layer"/>
  <g id="_2309163759040">
   <polygon class="fil0" points="5000,4835 0,4835 0,0 5000,0 "/>
   <path class="fil1" d="M2510 463c237,0 431,195 431,434 0,239 -194,433 -431,433 -237,0 -431,-194 -431,-433 0,-239 194,-434 431,-434z"/>
   <path class="fil1" d="M3597 2052l-257 0 398 -574 285 0 379 574 -286 0 -58 -104 -399 0 -62 104zm392 -229l-123 -209 -130 209 253 0zm-1584 229l0 -574 325 0 348 385 0 -385 247 0 0 574 -337 0 -337 -387 0 387 -246 0zm-807 0l0 -574 684 0 0 123 -427 0 0 92 395 0 0 122 -395 0 0 112 443 0 0 125 -700 0zm-658 -190l0 2c-1,7 -2,12 -2,16 0,22 13,39 38,50 26,11 65,16 119,16 41,0 72,-4 95,-13 24,-9 35,-22 35,-37 0,-24 -46,-43 -137,-58 -11,-2 -19,-3 -24,-4 -6,-1 -14,-2 -25,-4 -145,-24 -238,-49 -280,-77 -20,-14 -35,-29 -45,-48 -10,-18 -15,-39 -15,-62 0,-57 33,-100 99,-130 67,-29 164,-44 293,-44 126,0 220,14 281,41 61,28 92,71 92,129l0 6 -240 0 0 -2c0,-20 -12,-35 -36,-45 -25,-10 -60,-16 -107,-16 -37,0 -65,4 -84,11 -20,8 -30,18 -30,31 0,24 52,45 157,62 20,3 36,5 47,7 75,12 128,23 160,32 31,9 58,20 81,32 26,14 46,31 60,53 13,21 20,44 20,70 0,58 -36,103 -108,135 -73,31 -177,47 -314,47 -134,0 -232,-15 -292,-46 -60,-30 -90,-78 -90,-145l0 -9 252 0z"/>
   <path class="fil1" d="M1256 4078l-229 -216 698 -1212c38,-66 -9,-149 -86,-149l-1143 0 0 -303 1840 0 -1080 1880z"/>
   <path class="fil1" d="M3744 4078l229 -216 -698 -1212c-38,-66 9,-149 86,-149l1143 0 0 -303 -1840 0 1080 1880z"/>
   <path class="fil1" d="M2497 2518l3 -4 1037 1714 -275 144 -669 -1120c-39,-66 -134,-66 -174,0 -222,376 -664,1120 -664,1120l-269 -134c0,0 956,-1626 1011,-1720z"/>
  </g>
 </g>
</svg>
