<?xml version="1.0" encoding="UTF-8"?>
<!DOCTYPE svg PUBLIC "-//W3C//DTD SVG 1.1//EN" "http://www.w3.org/Graphics/SVG/1.1/DTD/svg11.dtd">
<!-- Creator: CorelDRAW 2019 (64-Bit) -->
<svg xmlns="http://www.w3.org/2000/svg" xml:space="preserve" width="40mm" height="48mm" version="1.1" style="shape-rendering:geometricPrecision; text-rendering:geometricPrecision; image-rendering:optimizeQuality; fill-rule:evenodd; clip-rule:evenodd"
viewBox="0 0 4000 4800"
 xmlns:xlink="http://www.w3.org/1999/xlink">
 <defs>
  <style type="text/css">
   <![CDATA[
    .fil1 {fill:#FEFEFE}
    .fil0 {fill:#373435}
   ]]>
  </style>
 </defs>
 <g id="Capa_x0020_1">
  <metadata id="CorelCorpID_0Corel-Layer"/>
  <g id="_1538132595776">
   <polygon class="fil0" points="3497.03,3856.02 497.03,3856.02 497.03,955.32 3497.03,955.32 "/>
   <path class="fil1" d="M2003.01 1233.18c142.5,0 258.58,116.83 258.58,260.11 0,143.22 -116.08,260.07 -258.58,260.07 -142.4,0 -258.56,-116.85 -258.56,-260.07 0,-143.28 116.16,-260.11 258.56,-260.11z"/>
   <path class="fil1" d="M2655.51 2186.48l-154.56 0 238.6 -344.75 171.02 0 227.54 344.75 -171.6 0 -34.76 -62.26 -239.09 0 -37.15 62.26zm234.82 -137.49l-73.77 -125.3 -77.96 125.3 151.73 0zm-950.08 137.49l0 -344.75 195.03 0 208.77 231.32 0 -231.32 148.08 0 0 344.75 -202.31 0 -201.97 -232.14 0 232.14 -147.6 0zm-484.57 0l0 -344.75 410.48 0 0 74.32 -256.33 0 0 54.89 237 0 0 73.41 -237 0 0 66.9 266.06 0 0 75.23 -420.21 0zm-394.46 -113.88l0 0.95c-0.91,4.32 -1.24,7.51 -1.24,9.56 0,13.41 7.6,23.41 22.8,29.96 15.42,6.55 39.06,9.78 71.13,9.78 24.43,0 43.43,-2.73 57.3,-8.05 13.93,-5.31 20.88,-12.78 20.88,-22.1 0,-14.23 -27.52,-25.66 -82.18,-34.62 -6.42,-1.04 -11.19,-1.85 -14.34,-2.27 -3.45,-0.68 -8.67,-1.5 -15.31,-2.59 -86.96,-14.23 -142.92,-29.61 -167.57,-46.29 -12.05,-8.15 -21.23,-17.65 -27.42,-28.76 -6.01,-11.04 -9.14,-23.55 -9.14,-37.33 0,-34.03 20.01,-59.86 59.95,-77.69 39.88,-17.74 98.37,-26.61 175.33,-26.61 76.05,0 132.35,8.29 168.91,24.93 36.67,16.74 54.99,42.39 54.99,76.96l0 3.99 -144 0 0 -1.58c0,-11.97 -7.22,-20.89 -21.77,-26.97 -14.56,-6.15 -35.93,-9.29 -64.04,-9.29 -21.84,0 -38.72,2.14 -50.45,6.55 -11.91,4.37 -17.83,10.6 -17.83,18.65 0,14.42 31.43,26.61 94.2,36.75 12.1,1.82 21.6,3.32 28.42,4.37 44.77,7.46 76.6,13.91 95.56,19.33 18.97,5.32 35.25,11.68 49.09,19 15.27,8.38 27.28,19.02 35.51,31.8 8.32,12.82 12.46,26.79 12.46,42.08 0,35.05 -21.78,61.93 -65.26,80.81 -43.53,18.92 -106.25,28.34 -187.89,28.34 -80.78,0 -139.26,-9.09 -175.38,-27.2 -36.2,-18.19 -54.12,-47.26 -54.12,-87.37l0 -5.09 151.41 0z"/>
   <path class="fil1" d="M1250.72 3401.88l-137.67 -129.39 419.11 -727.48c22.89,-39.71 -5.72,-89.24 -51.57,-89.24l-686.14 0 0 -181.93 1104.39 0 -648.12 1128.04z"/>
   <path class="fil1" d="M2743.3 3401.88l137.68 -129.39 -419.11 -727.48c-22.88,-39.71 5.73,-89.24 51.57,-89.24l686.15 0 0 -181.93 -1104.4 0 648.11 1128.04z"/>
   <path class="fil1" d="M1995.52 2466.12l1.5 -2.54 622.33 1028.61 -165.28 86.01 -400.97 -671.63c-23.66,-39.57 -80.91,-39.61 -104.48,0.05 -133.67,225.32 -398.37,671.58 -398.37,671.58l-161.79 -80.05c0,0 573.81,-975.5 607.06,-1032.03z"/>
  </g>
 </g>
</svg>
