<?xml version="1.0" encoding="UTF-8"?>
<!DOCTYPE svg PUBLIC "-//W3C//DTD SVG 1.1//EN" "http://www.w3.org/Graphics/SVG/1.1/DTD/svg11.dtd">
<!-- Creator: CorelDRAW X8 -->
<svg xmlns="http://www.w3.org/2000/svg" xml:space="preserve" width="100mm" height="50mm" version="1.1" style="shape-rendering:geometricPrecision; text-rendering:geometricPrecision; image-rendering:optimizeQuality; fill-rule:evenodd; clip-rule:evenodd"
viewBox="0 0 10000 5000"
 xmlns:xlink="http://www.w3.org/1999/xlink"
 xmlns:dc="http://purl.org/dc/elements/1.1/"
 xmlns:cc="http://creativecommons.org/ns#"
 xmlns:rdf="http://www.w3.org/1999/02/22-rdf-syntax-ns#"
 xmlns:svg="http://www.w3.org/2000/svg"
 xmlns:sodipodi="http://sodipodi.sourceforge.net/DTD/sodipodi-0.dtd"
 xmlns:inkscape="http://www.inkscape.org/namespaces/inkscape"
 title="aaa.svg (11KB)"
 inkscape:version="0.91 r13725"
 sodipodi:docname="aaa.svg">
 <defs>
  <style type="text/css">
   <![CDATA[
    .str0 {stroke:#FEFEFE;stroke-width:20}
    .str1 {stroke:black;stroke-width:7.62}
    .fil0 {fill:#FEFEFE}
    .fil1 {fill:#026AB0}
    .fil2 {fill:#6286BE}
    .fil3 {fill:#8195C6}
    .fil4 {fill:#A0CF68}
    .fil5 {fill:#026AB0;fill-rule:nonzero}
   ]]>
  </style>
 </defs>
 <g id="Capa_x0020_1">
  <metadata id="CorelCorpID_0Corel-Layer"/>
  <sodipodi:namedview pagecolor="#ffffff" bordercolor="#666666" borderopacity="1" objecttolerance="10" gridtolerance="10" guidetolerance="10" inkscape:pageopacity="0" inkscape:pageshadow="2" inkscape:window-width="1366" inkscape:window-height="705" id="namedview51" showgrid="false" inkscape:showpageshadow="false" inkscape:zoom="1" inkscape:cx="49.866257" inkscape:cy="19.332467" inkscape:window-x="-8" inkscape:window-y="-8" inkscape:window-maximized="1" inkscape:current-layer="outputsvg"/>
  <g id="_1795384657824">
   <rect class="fil0 str0" x="1010" y="500" width="8000" height="4000"/>
   <g id="layer101">
    <path id="path8" class="fil1" d="M6187 3819c-42,-13 -75,-36 -96,-70l-17 -24 0 -957 0 -956 17 -25c21,-34 54,-57 97,-70 35,-11 47,-11 980,-11l945 0 55 -45c174,-143 356,-269 553,-386 87,-52 135,-72 202,-87 55,-11 80,-12 118,-3 36,10 51,20 60,39 22,51 -22,93 -143,140 -109,43 -237,145 -514,413l-158 152 -1 898 -2 897 -16 25c-22,34 -55,57 -98,70 -35,11 -46,11 -992,10 -936,0 -957,0 -990,-10l0 0z" inkscape:connector-curvature="0"/>
    <path id="path32" class="fil1" d="M2864 3159c-35,-11 -76,-48 -92,-81l-11 -27 1 -401 2 -399 -15 -4c-20,-4 -55,-35 -70,-61 -17,-30 -17,-95 0,-125 16,-29 48,-57 83,-72l30 -13 4 -31c2,-16 10,-59 17,-94 68,-338 203,-557 400,-652 65,-31 117,-43 199,-45 85,-3 118,3 187,36 38,18 54,29 100,73 55,54 80,88 103,143 49,117 13,259 -76,298 -47,22 -85,15 -127,-21 -32,-28 -43,-52 -55,-119 -11,-62 -20,-83 -52,-121 -29,-34 -55,-49 -88,-48 -88,2 -167,91 -221,249 -22,62 -45,165 -52,222l-4 34 21 -5c224,-40 416,47 423,192 1,45 -12,74 -47,97 -19,13 -30,17 -57,19 -44,2 -67,-5 -109,-37 -20,-14 -44,-29 -54,-33 -34,-13 -111,-7 -190,17l-27 9 -5 85c-2,48 -4,170 -4,273 0,163 1,197 11,269 33,231 31,276 -19,331 -29,31 -70,46 -130,48 -35,1 -60,-1 -76,-6l0 0z" inkscape:connector-curvature="0"/>
    <path id="path34" class="fil1" d="M4915 3102c-138,-25 -246,-87 -286,-166 -14,-29 -17,-39 -17,-74 0,-37 2,-45 17,-74 20,-36 41,-61 84,-94 42,-33 71,-42 130,-42 42,0 52,1 69,11 30,18 39,38 35,77 -2,18 -8,45 -14,61 -14,37 -14,37 63,32 193,-11 471,-93 555,-165 30,-25 30,-37 0,-54 -61,-33 -120,-39 -422,-45 -91,-2 -179,-4 -194,-5 -15,-1 -46,-4 -70,-6 -60,-5 -181,-35 -227,-57 -44,-21 -81,-53 -95,-82 -24,-50 -7,-128 40,-199 98,-145 424,-368 678,-464 210,-79 365,-79 533,0 114,54 149,137 93,218 -23,32 -65,54 -113,57 -31,3 -42,0 -118,-25 -79,-26 -86,-28 -132,-27 -41,0 -59,4 -108,20 -109,35 -263,113 -372,188 -38,26 -126,108 -121,112 6,7 137,14 301,19 200,4 266,11 370,36 138,34 228,92 269,176 16,31 17,38 17,90 0,69 -11,104 -53,163 -99,138 -357,266 -633,312 -86,14 -222,17 -279,7l0 0z" inkscape:connector-curvature="0"/>
    <path id="path36" class="fil1" d="M3710 3099c-69,-7 -132,-24 -192,-53 -49,-23 -63,-33 -106,-73 -73,-70 -103,-134 -109,-234 -5,-92 15,-173 67,-274 102,-195 377,-476 607,-621 96,-61 205,-109 299,-130 50,-12 169,-16 209,-8 76,15 149,71 183,138 51,102 9,241 -117,393 -202,242 -435,349 -708,325 -38,-3 -81,-9 -95,-14 -14,-4 -28,-7 -31,-5 -6,3 -41,94 -56,144 -7,25 -15,63 -17,86 -3,39 -3,40 11,50 22,17 78,24 163,21 120,-4 219,-34 369,-109 162,-80 183,-90 216,-96 70,-14 134,3 164,45 24,32 26,77 8,116 -27,54 -84,104 -183,153 -223,115 -471,167 -682,146l0 0zm276 -804c97,-33 245,-142 325,-239 25,-30 63,-95 57,-100 -7,-7 -71,32 -141,86 -95,73 -235,188 -291,238l-40 36 34 -7c18,-3 43,-10 56,-14l0 0z" inkscape:connector-curvature="0"/>
    <path id="path38" class="fil1" d="M1237 3008c-106,-24 -197,-106 -260,-232 -86,-173 -103,-325 -62,-562 44,-249 106,-379 205,-427 11,-6 36,-11 61,-12 70,-4 121,18 154,68 14,20 23,63 22,75 0,29 -5,43 -7,55l-39 78c-43,85 -56,124 -72,215 -17,93 -21,147 -19,222 2,62 5,80 24,145 29,106 39,125 72,141 17,9 17,8 39,-6 33,-22 66,-36 82,-36 11,0 13,-2 10,-9 -27,-63 -37,-175 -22,-251 22,-115 84,-239 187,-378 205,-275 419,-432 646,-473 109,-19 173,-15 289,21 147,46 217,102 224,182 5,57 -18,94 -77,123 -78,39 -146,27 -240,-41 -51,-36 -77,-44 -124,-39 -48,7 -77,17 -127,44 -97,53 -194,149 -301,298 -125,175 -185,314 -171,402 6,37 17,52 48,68 21,10 32,11 89,11 218,0 479,-121 632,-293 18,-21 41,-43 53,-50 57,-37 137,-14 181,53 14,20 18,31 18,54 0,35 -13,61 -56,105 -53,54 -243,198 -366,278 -66,43 -217,102 -306,120 -64,13 -212,13 -269,0 -67,-15 -125,-37 -165,-65 -12,-9 -23,-15 -24,-15 -1,0 -4,7 -6,16 -9,41 -91,96 -169,115 -39,10 -111,10 -154,0l0 0z" inkscape:connector-curvature="0" sodipodi:nodetypes="ccccccscccccccscccccccccccccscccccccccsccc"/>
   </g>
   <g id="layer102">
    <path id="path43" class="fil2" d="M8223 3782c16,-14 16,-15 -2,-43 -5,-8 -22,-35 -37,-59 -15,-24 -31,-48 -35,-52 -4,-4 -9,-13 -11,-18 -5,-13 -31,-43 -31,-35 0,4 -2,5 -5,4 -3,-3 -5,16 -5,50l0 54 -927 0 -928 -1 0 -924 0 -925 378 -2c208,-2 373,-4 367,-4 -10,-2 -62,-72 -62,-84 0,-3 -2,-5 -6,-5 -2,0 -5,-4 -5,-8 0,-6 -6,-8 -23,-9l-23 0 22 -6c26,-6 1225,-11 1222,-5 -1,3 -36,35 -77,72 -277,249 -522,527 -751,855 -75,106 -118,178 -144,237 -9,23 -19,43 -21,46 -1,2 -13,-67 -26,-151 -35,-241 -75,-412 -119,-521 -48,-119 -133,-200 -233,-223 -19,-4 -47,-8 -62,-8 -63,0 -127,33 -149,76 -17,33 -12,62 24,150 44,106 67,203 155,644 83,418 136,595 199,656 18,19 25,22 61,28 71,12 111,1 165,-43 59,-47 95,-111 118,-213 16,-70 32,-104 108,-223 230,-367 462,-669 779,-1010 55,-59 109,-117 119,-127 10,-12 20,-21 23,-21 3,0 4,342 4,895l-2 895 -12 16c-7,9 -12,19 -12,22 0,3 -3,5 -5,3 -3,-2 -7,-1 -9,2 -2,3 -11,10 -20,16l-18 12 16 -13 0 0zm-123 -725c0,-52 -1,-10 -1,94 0,104 1,147 1,95 2,-52 2,-137 0,-189z" inkscape:connector-curvature="0"/>
   </g>
   <g id="layer103">
    <path id="path46" class="fil3" d="M6242 3678c-2,-3 -2,-420 -2,-926l2 -919 523 -1c287,-1 522,-3 522,-4 0,-5 -14,-27 -45,-74l-22 -32 -68 -1c-66,-1 -67,-1 -22,-4 43,-3 44,-3 19,-6 -15,-1 196,-3 469,-3l495 -2 -164 157c-201,192 -319,321 -474,517 -168,212 -293,396 -335,494 -9,23 -19,43 -21,46 -1,2 -13,-66 -26,-150 -53,-360 -106,-541 -187,-640 -90,-110 -243,-145 -339,-79 -51,37 -59,86 -25,164 53,120 73,200 167,672 83,418 137,595 199,656 19,19 26,22 61,28 72,12 111,1 165,-43 59,-47 95,-111 118,-213 16,-70 33,-104 108,-223 189,-303 359,-532 605,-816 103,-119 304,-335 316,-341 3,-1 4,336 4,749 -1,412 -3,730 -4,706 -3,-36 -4,-24 -6,57l-3 101 -1 -109 -2 -107 -16 -24c-8,-12 -16,-24 -16,-25 0,-1 -9,-15 -20,-32 -31,-44 -34,-49 -37,-59 -2,-5 -6,-10 -8,-10 -3,0 -5,-3 -5,-7 0,-4 -2,-8 -5,-8 -3,0 -6,-4 -6,-8 0,-4 -2,-8 -5,-8 -3,0 -6,-2 -6,-4 0,-3 -8,-18 -19,-35l-19 -30 -1 28c-1,16 -2,-79 -4,-210 -2,-183 -3,-120 -4,273l-1 510 -926 1c-744,1 -927,0 -929,-5l0 -1z" inkscape:connector-curvature="0"/>
   </g>
   <g id="layer104">
    <path id="path49" class="fil4" d="M6242 3678c-2,-3 -2,-420 -2,-926l2 -919 869 -1 868 -1 -99 97c-223,219 -428,463 -617,737 -62,91 -99,154 -123,209 -9,23 -19,43 -21,46 -1,2 -13,-66 -26,-150 -53,-360 -106,-541 -187,-640 -90,-110 -243,-145 -339,-79 -55,40 -61,101 -17,185 38,71 68,194 159,651 83,418 137,595 199,656 19,19 26,22 61,28 71,12 111,1 165,-43 59,-47 95,-111 118,-213 16,-70 33,-104 108,-223 154,-246 269,-408 442,-622 123,-151 287,-339 296,-339 4,0 5,39 2,125 -2,69 -3,418 -3,776l0 651 -926 1c-744,1 -927,0 -929,-6l0 0z" inkscape:connector-curvature="0"/>
   </g>
   <ellipse id="path4494" class="fil5 str1" cx="1208" cy="1419" rx="184" ry="158"/>
  </g>
 </g>
</svg>
