<?xml version="1.0" encoding="UTF-8"?>
<!DOCTYPE svg PUBLIC "-//W3C//DTD SVG 1.1//EN" "http://www.w3.org/Graphics/SVG/1.1/DTD/svg11.dtd">
<!-- Creator: CorelDRAW X8 -->
<svg xmlns="http://www.w3.org/2000/svg" xml:space="preserve" width="31.0444mm" height="28.2222mm" version="1.1" style="shape-rendering:geometricPrecision; text-rendering:geometricPrecision; image-rendering:optimizeQuality; fill-rule:evenodd; clip-rule:evenodd"
viewBox="0 0 3104 2822"
 xmlns:xlink="http://www.w3.org/1999/xlink">
 <defs>
  <style type="text/css">
   <![CDATA[
    .fil3 {fill:#FEFEFE;fill-rule:nonzero}
    .fil1 {fill:#CD823D;fill-rule:nonzero}
    .fil5 {fill:#3F7559;fill-rule:nonzero}
    .fil4 {fill:#377545;fill-rule:nonzero}
    .fil0 {fill:url(#id34)}
    .fil2 {fill:url(#id35)}
    .fil7 {fill:url(#id36)}
    .fil6 {fill:url(#id37)}
   ]]>
  </style>
   <clipPath id="id0" style="clip-rule:nonzero">
    <path d="M3033 2751l-175 0 0 -782 110 -324 -110 -41 0 -809 175 0 0 1956 0 0z"/>
   </clipPath>
   <clipPath id="id1" style="clip-rule:nonzero">
    <path d="M71 1693l0 -851c0,-16 0,-31 0,-47l2265 0c-318,28 -709,109 -1079,227l-455 -165 -149 403c-266,129 -478,277 -582,433l0 0z"/>
   </clipPath>
   <clipPath id="id2" style="clip-rule:nonzero">
    <path d="M2787 2751l-196 0 196 -575 0 575zm-2689 0l-28 0 0 -1058c105,-156 318,-304 583,-433l-555 1491zm2689 -1172l-1530 -557c370,-117 762,-199 1079,-227l451 0 0 784 0 0z"/>
   </clipPath>
   <clipPath id="id3" style="clip-rule:nonzero">
    <path d="M2822 2751l-232 0 197 0 0 -575 35 -104 0 679zm-2724 0l-54 0 0 -1956 27 0c0,16 0,32 0,47l0 851 0 1058 27 0zm2724 -1159l-35 -13 0 -784 35 0 0 797 0 0z"/>
   </clipPath>
   <clipPath id="id4" style="clip-rule:nonzero">
    <path d="M2858 2751l-36 0 0 -679 36 -103 0 782zm0 -1147l-36 -12 0 -797 36 0 0 809 0 0z"/>
   </clipPath>
   <clipPath id="id5" style="clip-rule:nonzero">
    <path d="M2590 2752l-324 0 28 -73 -484 -189 -52 131 334 131 -543 0 -467 -183 -51 131 130 52 -1064 0 705 -1895 2166 787 -110 325 -36 103 -35 103 -197 577zm-2101 -412l-52 131 486 190 50 -131 -484 -190zm712 -73l-51 131 484 190 52 -131 -485 -190zm734 -70l-51 131 485 189 51 -131 -485 -189zm-1327 -159l-52 131 486 190 51 -132 -485 -189zm719 -64l-52 131 486 190 50 -132 -484 -189zm727 -68l-52 131 486 189 51 -131 -485 -189zm-1321 -161l-51 131 485 189 52 -131 -486 -189zm713 -62l-52 131 485 190 52 -132 -485 -189zm714 -60l-51 132 484 189 52 -131 -485 -190zm-1308 -169l-51 131 485 189 52 -131 -486 -189zm699 -53l-51 131 485 189 51 -131 -485 -189zm-592 -229l-52 131 485 189 51 -131 -484 -189 0 0z"/>
   </clipPath>
   <clipPath id="id6" style="clip-rule:nonzero">
    <path d="M2579 1910l-436 -170 32 -82 436 170 -32 82 0 0z"/>
   </clipPath>
   <clipPath id="id7" style="clip-rule:nonzero">
    <path d="M2594 1944l-485 -189 51 -132 485 190 -51 131zm-419 -286l-32 82 436 170 32 -82 -436 -170 0 0z"/>
   </clipPath>
   <clipPath id="id8" style="clip-rule:nonzero">
    <path d="M2473 2192l-436 -170 32 -82 436 170 -32 82 0 0z"/>
   </clipPath>
   <clipPath id="id9" style="clip-rule:nonzero">
    <path d="M2488 2227l-485 -190 51 -132 485 190 -51 132zm-419 -287l-32 82 436 170 32 -82 -436 -170 0 0z"/>
   </clipPath>
   <clipPath id="id10" style="clip-rule:nonzero">
    <path d="M2354 2483l-436 -170 32 -82 436 170 -32 82 0 0z"/>
   </clipPath>
   <clipPath id="id11" style="clip-rule:nonzero">
    <path d="M2369 2517l-485 -189 51 -132 485 190 -51 131zm-419 -286l-32 82 436 170 32 -82 -436 -170 0 0z"/>
   </clipPath>
   <clipPath id="id12" style="clip-rule:nonzero">
    <path d="M2238 2752l-73 0 -373 -146 32 -82 436 170 -22 58 0 0z"/>
   </clipPath>
   <clipPath id="id13" style="clip-rule:nonzero">
    <path d="M2266 2752l-28 0 22 -58 -436 -170 -32 82 373 146 -73 0 -334 -131 51 -131 486 189 -29 73 0 0z"/>
   </clipPath>
   <clipPath id="id14" style="clip-rule:nonzero">
    <path d="M1970 1687l-436 -170 32 -82 436 170 -32 82 0 0z"/>
   </clipPath>
   <clipPath id="id15" style="clip-rule:nonzero">
    <path d="M1985 1722l-485 -190 51 -131 486 189 -52 132zm-419 -287l-32 82 436 170 32 -82 -436 -170 0 0z"/>
   </clipPath>
   <clipPath id="id16" style="clip-rule:nonzero">
    <path d="M1864 1970l-435 -171 32 -82 435 170 -32 83 0 0z"/>
   </clipPath>
   <clipPath id="id17" style="clip-rule:nonzero">
    <path d="M1879 2004l-485 -190 52 -131 485 189 -52 132zm-418 -287l-33 82 436 170 32 -82 -435 -170 0 0z"/>
   </clipPath>
   <clipPath id="id18" style="clip-rule:nonzero">
    <path d="M1745 2261l-436 -171 33 -82 435 170 -32 83 0 0z"/>
   </clipPath>
   <clipPath id="id19" style="clip-rule:nonzero">
    <path d="M1760 2295l-485 -190 52 -131 485 189 -52 132zm-419 -287l-32 82 436 171 32 -83 -436 -170 0 0z"/>
   </clipPath>
   <clipPath id="id20" style="clip-rule:nonzero">
    <path d="M1620 2554l-436 -171 32 -82 436 171 -32 82 0 0z"/>
   </clipPath>
   <clipPath id="id21" style="clip-rule:nonzero">
    <path d="M1635 2588l-486 -190 52 -131 485 190 -51 131zm-419 -287l-32 82 436 171 32 -82 -436 -171 0 0z"/>
   </clipPath>
   <clipPath id="id22" style="clip-rule:nonzero">
    <path d="M1476 2752l-242 0 -169 -67 32 -82 379 149 0 0z"/>
   </clipPath>
   <clipPath id="id23" style="clip-rule:nonzero">
    <path d="M1549 2752l-73 0 -379 -149 -32 82 169 67 -73 0 -130 -52 51 -131 467 183 0 0z"/>
   </clipPath>
   <clipPath id="id24" style="clip-rule:nonzero">
    <path d="M1377 1458l-436 -170 32 -82 436 170 -32 82 0 0z"/>
   </clipPath>
   <clipPath id="id25" style="clip-rule:nonzero">
    <path d="M1392 1492l-485 -189 51 -132 485 190 -51 131zm-419 -287l-32 83 436 170 32 -82 -436 -171 0 0z"/>
   </clipPath>
   <clipPath id="id26" style="clip-rule:nonzero">
    <path d="M1271 1740l-436 -170 33 -82 435 170 -32 82 0 0z"/>
   </clipPath>
   <clipPath id="id27" style="clip-rule:nonzero">
    <path d="M1286 1774l-485 -189 51 -132 486 190 -52 131zm-418 -286l-33 82 436 170 32 -82 -435 -170 0 0z"/>
   </clipPath>
   <clipPath id="id28" style="clip-rule:nonzero">
    <path d="M1152 2031l-436 -170 32 -82 436 170 -32 82 0 0z"/>
   </clipPath>
   <clipPath id="id29" style="clip-rule:nonzero">
    <path d="M1167 2066l-485 -190 51 -132 486 190 -52 132zm-418 -287l-33 82 436 170 32 -82 -435 -170 0 0z"/>
   </clipPath>
   <clipPath id="id30" style="clip-rule:nonzero">
    <path d="M1027 2324l-436 -170 32 -82 436 170 -32 82 0 0z"/>
   </clipPath>
   <clipPath id="id31" style="clip-rule:nonzero">
    <path d="M1042 2359l-486 -190 52 -131 485 189 -51 132zm-419 -287l-32 82 435 170 33 -82 -436 -170 0 0z"/>
   </clipPath>
   <clipPath id="id32" style="clip-rule:nonzero">
    <path d="M907 2627l-435 -171 32 -82 435 170 -32 83 0 0z"/>
   </clipPath>
   <clipPath id="id33" style="clip-rule:nonzero">
    <path d="M922 2661l-485 -190 52 -131 485 189 -52 132zm-418 -287l-32 82 435 171 32 -83 -435 -170 0 0z"/>
   </clipPath>
  <linearGradient id="id34" gradientUnits="userSpaceOnUse" x1="142.903" y1="556.812" x2="2507.64" y2="2103.56">
   <stop offset="0" style="stop-opacity:1; stop-color:#E9F0E5"/>
   <stop offset="1" style="stop-opacity:1; stop-color:#C0DCBA"/>
  </linearGradient>
  <radialGradient id="id35" gradientUnits="userSpaceOnUse" gradientTransform="matrix(9.44922 6.01402 6.01392 -9.44906 -9670 11542)" cx="254.17" cy="1250.87" r="294.9" fx="254.17" fy="1250.87">
   <stop offset="0" style="stop-opacity:1; stop-color:#DAE9D6"/>
   <stop offset="0.478431" style="stop-opacity:1; stop-color:#C0DCBA"/>
   <stop offset="0.921569" style="stop-opacity:1; stop-color:#A5D0A0"/>
   <stop offset="1" style="stop-opacity:1; stop-color:#A5D0A0"/>
  </radialGradient>
  <radialGradient id="id36" gradientUnits="userSpaceOnUse" gradientTransform="matrix(1.12104 0.713497 0.713492 -1.12104 -975 1763)" cx="1057.24" cy="1186.81" r="737.02" fx="1057.24" fy="1186.81">
   <stop offset="0" style="stop-opacity:1; stop-color:#9ACB56"/>
   <stop offset="0.45098" style="stop-opacity:1; stop-color:#9ACB56"/>
   <stop offset="1" style="stop-opacity:1; stop-color:#3F7559"/>
  </radialGradient>
  <radialGradient id="id37" gradientUnits="userSpaceOnUse" gradientTransform="matrix(1.58388 -2.15207 2.15206 1.58387 -4641 -543)" xlink:href="#id36" cx="310.18" cy="2072.53" r="306.1" fx="310.18" fy="2072.53">
  </radialGradient>
 </defs>
 <g id="Capa_x0020_1">
  <metadata id="CorelCorpID_0Corel-Layer"/>
  <path class="fil0" d="M2336 795l-2265 0c16,-478 277,-751 723,-751l1993 0 0 741c-55,0 -129,0 -229,0 -69,0 -143,4 -222,10z"/>
  <path class="fil1" d="M2858 -26c0,0 -1482,0 -2064,0 -468,0 -794,286 -794,868 0,318 0,1980 0,1980l2858 0 0 -2848zm-36 35l0 2778 -2787 0 0 -1945c0,-529 277,-833 759,-833l2028 0z"/>
  <path class="fil2" d="M2787 795l-451 0c79,-6 153,-10 222,-10 100,0 174,0 229,0l0 10zm139 -10c0,0 -17,0 -68,0l68 0z"/>
  <path class="fil3" d="M2858 -26c0,0 -1482,0 -2064,0 -468,0 -794,286 -794,868 0,318 0,1980 0,1980l2858 0 0 -2848zm-71 70l0 2708 -2716 0 0 -1910c0,-507 263,-798 723,-798l1993 0z"/>
  <path class="fil4" d="M2858 -26c0,0 -1482,0 -2064,0 -468,0 -794,286 -794,868 0,318 0,1980 0,1980l2858 0 0 -2848zm-36 35l0 2778 -2787 0 0 -1945c0,-529 277,-833 759,-833l2028 0z"/>
  <g style="clip-path:url(#id0)">
   <image x="2847" y="786" width="198" height="1976" xlink:href="EXCEL_Images\EXCEL_ImgID1.png"/>
  </g>
  <g style="clip-path:url(#id1)">
   <image x="60" y="786" width="2290" height="918" xlink:href="EXCEL_Images\EXCEL_ImgID2.png"/>
  </g>
  <g style="clip-path:url(#id2)">
   <image x="60" y="786" width="2738" height="1976" xlink:href="EXCEL_Images\EXCEL_ImgID3.png"/>
  </g>
  <g style="clip-path:url(#id3)">
   <image x="35" y="786" width="2798" height="1976" xlink:href="EXCEL_Images\EXCEL_ImgID4.png"/>
  </g>
  <g style="clip-path:url(#id4)">
   <image x="2811" y="786" width="53.6222" height="1976.26" xlink:href="EXCEL_Images\EXCEL_ImgID5.png"/>
  </g>
  <path class="fil5" d="M2160 1623l-51 132 485 189 51 -131 -485 -190zm15 35l436 170 -32 82 -436 -170 32 -82z"/>
  <path class="fil5" d="M2054 1905l-51 132 485 189 51 -131 -485 -190zm15 35l436 170 -32 82 -436 -170 32 -82z"/>
  <path class="fil5" d="M1935 2196l-51 132 485 189 51 -131 -485 -190zm15 35l436 170 -32 82 -436 -170 32 -82z"/>
  <polygon class="fil5" points="1809,2490 1758,2621 2092,2752 2165,2752 1792,2606 1824,2524 2260,2694 2238,2752 2266,2752 2294,2679 "/>
  <path class="fil5" d="M1551 1401l-51 131 485 190 52 -132 -486 -189zm15 34l436 170 -32 82 -436 -170 32 -82z"/>
  <path class="fil5" d="M1446 1683l-52 131 485 190 52 -132 -485 -189zm15 34l435 170 -32 82 -435 -170 32 -82z"/>
  <path class="fil5" d="M1327 1974l-52 131 485 190 52 -132 -485 -189zm15 34l435 170 -32 83 -436 -171 33 -82z"/>
  <path class="fil5" d="M1201 2267l-51 131 485 190 51 -131 -485 -190zm15 34l436 171 -32 82 -436 -171 32 -82z"/>
  <polygon class="fil5" points="1082,2569 1030,2701 1161,2752 1234,2752 1065,2685 1097,2603 1476,2752 1549,2752 "/>
  <path class="fil5" d="M958 1171l-51 132 485 189 51 -131 -485 -190zm15 35l436 170 -32 82 -436 -170 32 -82z"/>
  <path class="fil5" d="M853 1453l-52 132 485 189 52 -131 -485 -190zm15 35l435 170 -32 82 -436 -170 33 -82z"/>
  <path class="fil5" d="M733 1745l-51 131 485 190 52 -132 -486 -189zm15 34l436 170 -32 82 -436 -170 32 -82z"/>
  <path class="fil5" d="M608 2038l-52 131 485 190 52 -132 -485 -189zm15 34l436 170 -33 82 -435 -170 32 -82z"/>
  <path class="fil5" d="M489 2340l-52 131 485 190 52 -132 -485 -189zm15 34l435 170 -32 83 -435 -171 32 -82z"/>
  <g style="clip-path:url(#id5)">
   <image x="67" y="836" width="2932" height="1952" xlink:href="EXCEL_Images\EXCEL_ImgID6.png"/>
  </g>
  <g style="clip-path:url(#id6)">
   <image x="2116" y="1629" width="526" height="311" xlink:href="EXCEL_Images\EXCEL_ImgID7.png"/>
  </g>
  <g style="clip-path:url(#id7)">
   <image x="2081" y="1598" width="597" height="375" xlink:href="EXCEL_Images\EXCEL_ImgID8.png"/>
  </g>
  <g style="clip-path:url(#id8)">
   <image x="2014" y="1919" width="512" height="308" xlink:href="EXCEL_Images\EXCEL_ImgID9.png"/>
  </g>
  <g style="clip-path:url(#id9)">
   <image x="1979" y="1883" width="579" height="378" xlink:href="EXCEL_Images\EXCEL_ImgID10.png"/>
  </g>
  <g style="clip-path:url(#id10)">
   <image x="1894" y="2208" width="512" height="308" xlink:href="EXCEL_Images\EXCEL_ImgID11.png"/>
  </g>
  <g style="clip-path:url(#id11)">
   <image x="1862" y="2173" width="579" height="378" xlink:href="EXCEL_Images\EXCEL_ImgID12.png"/>
  </g>
  <g style="clip-path:url(#id12)">
   <image x="1760" y="2494" width="526" height="294" xlink:href="EXCEL_Images\EXCEL_ImgID13.png"/>
  </g>
  <g style="clip-path:url(#id13)">
   <image x="1725" y="2462" width="597" height="325" xlink:href="EXCEL_Images\EXCEL_ImgID14.png"/>
  </g>
  <g style="clip-path:url(#id14)">
   <image x="1506" y="1411" width="526" height="308" xlink:href="EXCEL_Images\EXCEL_ImgID15.png"/>
  </g>
  <g style="clip-path:url(#id15)">
   <image x="1471" y="1375" width="597" height="378" xlink:href="EXCEL_Images\EXCEL_ImgID16.png"/>
  </g>
  <g style="clip-path:url(#id16)">
   <image x="1404" y="1682" width="512" height="308" xlink:href="EXCEL_Images\EXCEL_ImgID17.png"/>
  </g>
  <g style="clip-path:url(#id17)">
   <image x="1368" y="1647" width="597" height="378" xlink:href="EXCEL_Images\EXCEL_ImgID18.png"/>
  </g>
  <g style="clip-path:url(#id18)">
   <image x="1284" y="1986" width="512" height="311" xlink:href="EXCEL_Images\EXCEL_ImgID19.png"/>
  </g>
  <g style="clip-path:url(#id19)">
   <image x="1252" y="1954" width="579" height="375" xlink:href="EXCEL_Images\EXCEL_ImgID20.png"/>
  </g>
  <g style="clip-path:url(#id20)">
   <image x="1150" y="2275" width="530" height="308" xlink:href="EXCEL_Images\EXCEL_ImgID21.png"/>
  </g>
  <g style="clip-path:url(#id21)">
   <image x="1114" y="2240" width="597" height="378" xlink:href="EXCEL_Images\EXCEL_ImgID22.png"/>
  </g>
  <g style="clip-path:url(#id22)">
   <image x="1030" y="2578" width="480" height="209" xlink:href="EXCEL_Images\EXCEL_ImgID23.png"/>
  </g>
  <g style="clip-path:url(#id23)">
   <image x="998" y="2547" width="579" height="241" xlink:href="EXCEL_Images\EXCEL_ImgID24.png"/>
  </g>
  <g style="clip-path:url(#id24)">
   <image x="913" y="1174" width="526" height="308" xlink:href="EXCEL_Images\EXCEL_ImgID25.png"/>
  </g>
  <g style="clip-path:url(#id25)">
   <image x="878" y="1139" width="597" height="378" xlink:href="EXCEL_Images\EXCEL_ImgID26.png"/>
  </g>
  <g style="clip-path:url(#id26)">
   <image x="811" y="1460" width="512" height="311" xlink:href="EXCEL_Images\EXCEL_ImgID27.png"/>
  </g>
  <g style="clip-path:url(#id27)">
   <image x="776" y="1428" width="579" height="375" xlink:href="EXCEL_Images\EXCEL_ImgID28.png"/>
  </g>
  <g style="clip-path:url(#id28)">
   <image x="691" y="1749" width="512" height="308" xlink:href="EXCEL_Images\EXCEL_ImgID29.png"/>
  </g>
  <g style="clip-path:url(#id29)">
   <image x="659" y="1714" width="579" height="378" xlink:href="EXCEL_Images\EXCEL_ImgID30.png"/>
  </g>
  <g style="clip-path:url(#id30)">
   <image x="557" y="2039" width="530" height="308" xlink:href="EXCEL_Images\EXCEL_ImgID31.png"/>
  </g>
  <g style="clip-path:url(#id31)">
   <image x="522" y="2003" width="597" height="378" xlink:href="EXCEL_Images\EXCEL_ImgID32.png"/>
  </g>
  <g style="clip-path:url(#id32)">
   <image x="437" y="2342" width="530" height="308" xlink:href="EXCEL_Images\EXCEL_ImgID33.png"/>
  </g>
  <g style="clip-path:url(#id33)">
   <image x="405" y="2307" width="597" height="378" xlink:href="EXCEL_Images\EXCEL_ImgID34.png"/>
  </g>
  <polygon class="fil6" points="1751,445 843,1790 1072,1790 1072,2056 281,2056 1345,445 "/>
  <polygon class="fil4" points="1751,445 1747,443 835,1794 1068,1794 1067,2052 289,2052 1347,450 1751,450 1751,445 1747,443 1751,445 1751,441 1343,441 273,2061 1076,2061 1077,1785 851,1785 1759,441 1751,441 "/>
  <polygon class="fil7" points="1436,2052 360,450 755,450 1813,2052 "/>
  <path class="fil4" d="M757 445l-406 0 1082 1611 388 0 -1064 -1611zm-5 9l1053 1594 -367 0 -1070 -1594 384 0z"/>
 </g>
</svg>
